\select@language {croatian}
\contentsline {section}{\numberline {1}Uvod}{2}{section.1}
\contentsline {section}{\numberline {2}Razvoj}{3}{section.2}
\contentsline {subsection}{\numberline {2.1}RFID}{3}{subsection.2.1}
\contentsline {paragraph}{}{3}{section*.2}
\contentsline {paragraph}{}{3}{section*.3}
\contentsline {paragraph}{}{3}{section*.4}
\contentsline {paragraph}{}{3}{section*.5}
\contentsline {subsection}{\numberline {2.2}NFC}{4}{subsection.2.2}
\contentsline {paragraph}{}{4}{section*.6}
\contentsline {paragraph}{}{4}{section*.7}
\contentsline {paragraph}{}{4}{section*.8}
\contentsline {paragraph}{}{4}{section*.9}
\contentsline {paragraph}{}{4}{section*.10}
\contentsline {section}{\numberline {3}Konkurentske tehnologije}{5}{section.3}
\contentsline {section}{\numberline {4}Moderna primjena}{6}{section.4}
\contentsline {subsection}{\numberline {4.1}Pokretanje aplikacija}{6}{subsection.4.1}
\contentsline {subsection}{\numberline {4.2}Identifikacija}{6}{subsection.4.2}
\contentsline {subsection}{\numberline {4.3}Komunikacijski protokoli}{6}{subsection.4.3}
\contentsline {subsection}{\numberline {4.4}Pla\IeC {\'c}anje}{7}{subsection.4.4}
\contentsline {subsection}{\numberline {4.5}Kultura i izlasci}{7}{subsection.4.5}
\contentsline {subsection}{\numberline {4.6}Reklamiranje}{7}{subsection.4.6}
\contentsline {subsection}{\numberline {4.7}Igre}{7}{subsection.4.7}
