\relax 
\providecommand\HyperFirstAtBeginDocument{\AtBeginDocument}
\HyperFirstAtBeginDocument{\ifx\hyper@anchor\@undefined
\global\let\oldcontentsline\contentsline
\gdef\contentsline#1#2#3#4{\oldcontentsline{#1}{#2}{#3}}
\global\let\oldnewlabel\newlabel
\gdef\newlabel#1#2{\newlabelxx{#1}#2}
\gdef\newlabelxx#1#2#3#4#5#6{\oldnewlabel{#1}{{#2}{#3}}}
\AtEndDocument{\ifx\hyper@anchor\@undefined
\let\contentsline\oldcontentsline
\let\newlabel\oldnewlabel
\fi}
\fi}
\global\let\hyper@last\relax 
\gdef\HyperFirstAtBeginDocument#1{#1}
\providecommand\HyField@AuxAddToFields[1]{}
\select@language{croatian}
\@writefile{toc}{\select@language{croatian}}
\@writefile{lof}{\select@language{croatian}}
\@writefile{lot}{\select@language{croatian}}
\@writefile{toc}{\contentsline {section}{\numberline {1}Uvod}{2}{section.1}}
\@writefile{toc}{\contentsline {section}{\numberline {2}Razvoj}{3}{section.2}}
\@writefile{toc}{\contentsline {subsection}{\numberline {2.1}RFID}{3}{subsection.2.1}}
\@writefile{toc}{\contentsline {paragraph}{}{3}{section*.2}}
\@writefile{toc}{\contentsline {paragraph}{}{3}{section*.3}}
\@writefile{toc}{\contentsline {paragraph}{}{3}{section*.4}}
\@writefile{toc}{\contentsline {paragraph}{}{3}{section*.5}}
\@writefile{toc}{\contentsline {subsection}{\numberline {2.2}NFC}{4}{subsection.2.2}}
\@writefile{toc}{\contentsline {paragraph}{}{4}{section*.6}}
\@writefile{toc}{\contentsline {paragraph}{}{4}{section*.7}}
\@writefile{toc}{\contentsline {paragraph}{}{4}{section*.8}}
\@writefile{toc}{\contentsline {paragraph}{}{4}{section*.9}}
\@writefile{toc}{\contentsline {paragraph}{}{4}{section*.10}}
\@writefile{toc}{\contentsline {section}{\numberline {3}Konkurentske tehnologije}{5}{section.3}}
\@writefile{toc}{\contentsline {section}{\numberline {4}Moderna primjena}{6}{section.4}}
\@writefile{toc}{\contentsline {subsection}{\numberline {4.1}Pokretanje aplikacija}{6}{subsection.4.1}}
\@writefile{toc}{\contentsline {subsection}{\numberline {4.2}Identifikacija}{6}{subsection.4.2}}
\@writefile{toc}{\contentsline {subsection}{\numberline {4.3}Komunikacijski protokoli}{6}{subsection.4.3}}
\bibdata{}
\@writefile{toc}{\contentsline {subsection}{\numberline {4.4}Pla\IeC {\'c}anje}{7}{subsection.4.4}}
\@writefile{toc}{\contentsline {subsection}{\numberline {4.5}Kultura i izlasci}{7}{subsection.4.5}}
\@writefile{toc}{\contentsline {subsection}{\numberline {4.6}Reklamiranje}{7}{subsection.4.6}}
\@writefile{toc}{\contentsline {subsection}{\numberline {4.7}Igre}{7}{subsection.4.7}}
